<svg width="55" height="55" viewBox="0 0 55 55" fill="none" xmlns="http://www.w3.org/2000/svg">
<path d="M27.5 0.000999451C12.3138 0.000999451 0 12.3123 0 27.4998C0 42.6872 12.3126 54.9986 27.5 54.9986C42.6887 54.9986 55 42.6872 55 27.4998C55 12.3123 42.6887 0.000999451 27.5 0.000999451ZM27.5 8.22346C32.525 8.22346 36.597 12.2966 36.597 17.3193C36.597 22.3431 32.525 26.4151 27.5 26.4151C22.4774 26.4151 18.4054 22.3431 18.4054 17.3193C18.4054 12.2966 22.4774 8.22346 27.5 8.22346ZM27.494 47.8089C22.4822 47.8089 17.892 45.9837 14.3516 42.9627C13.4891 42.227 12.9914 41.1483 12.9914 40.0165C12.9914 34.9226 17.1141 30.8458 22.2092 30.8458H32.7932C37.8895 30.8458 41.9965 34.9226 41.9965 40.0165C41.9965 41.1495 41.5012 42.2258 40.6376 42.9614C37.0983 45.9837 32.5069 47.8089 27.494 47.8089Z" fill="#6ED1D7"/>
</svg>
