<svg width="574" height="286" viewBox="0 0 574 286" fill="none" xmlns="http://www.w3.org/2000/svg">
<rect width="573.776" height="286" rx="30" fill="#454545"/>
<path d="M222.016 173.595C221.012 173.595 219.844 173.512 218.514 173.348C213.367 172.717 209.556 170.912 207.079 167.932C204.603 164.952 203.365 160.704 203.365 155.189V141.199C203.365 139.705 203.704 138.35 204.38 137.133C205.025 135.951 205.966 134.955 207.113 134.24C208.243 133.532 209.555 133.161 210.891 133.172C212.942 133.172 214.692 133.961 216.143 135.537C217.593 137.116 218.319 139.051 218.319 141.341V155.119C218.319 156.474 218.613 157.479 219.201 158.133C219.703 158.787 220.39 159.219 221.263 159.43C222.877 159.43 224.023 158.998 224.699 158.133C225.266 157.525 225.549 156.521 225.549 155.119V141.339C225.549 139.868 225.886 138.506 226.564 137.256C227.202 136.047 228.143 135.02 229.295 134.275C230.418 133.546 231.733 133.162 233.075 133.172C234.471 133.172 235.735 133.528 236.871 134.24C238.004 134.954 238.904 135.919 239.57 137.133C240.234 138.35 240.567 139.705 240.567 141.2V155.189C240.567 158.88 240.032 161.996 238.964 164.531C237.894 167.067 236.237 169.065 233.991 170.526C231.743 171.986 228.886 172.928 225.418 173.348C224.088 173.512 222.953 173.595 222.016 173.595ZM255.619 173.348C251.584 173.022 248.399 172.122 246.065 170.649C243.185 168.733 241.747 166.664 241.747 164.445C241.747 163.766 241.844 163.17 242.041 162.655C242.413 161.393 243.109 160.395 244.134 159.659C245.162 158.92 246.401 158.553 247.864 158.553C248.759 158.553 249.848 158.776 251.136 159.221L252.478 159.641L253.426 159.993C254.91 160.646 256.251 161.056 257.452 161.218H258.661C259.251 161.218 259.643 161.007 259.839 160.587C259.839 159.862 259.6 159.339 259.12 159.01C259.081 158.975 259.037 158.945 258.989 158.922C258.927 158.89 258.867 158.854 258.809 158.817C258.761 158.786 258.712 158.756 258.661 158.729L258.042 158.483L256.699 158.133L254.963 157.571L253.688 157.221C251.681 156.637 250.018 156.001 248.699 155.31C247.379 154.621 246.343 153.844 245.59 152.98C244.837 152.115 244.21 151.064 243.709 149.825C243.215 148.537 242.96 147.171 242.956 145.793C242.956 143.548 243.622 141.439 244.953 139.466C246.283 137.49 248.187 135.919 250.663 134.75C253.137 133.581 256.022 132.996 259.317 132.996C261.867 132.996 264.147 133.289 266.154 133.873C269.317 134.808 271.465 136.082 272.601 137.694C273.167 138.513 273.451 139.517 273.451 140.71C273.451 141.854 273.113 142.912 272.436 143.882C271.759 144.853 270.844 145.489 269.689 145.793C269.166 145.933 268.626 146.004 268.084 146.004C267.234 146.004 266.122 145.816 264.747 145.441L262.719 144.916L261.738 144.635L260.658 144.426C260.413 144.35 260.16 144.303 259.905 144.285C258.617 144.285 257.886 144.31 257.712 144.355L257.583 144.496L257.386 144.707C257.232 144.87 257.156 145.021 257.156 145.162C257.156 145.466 257.386 145.793 257.843 146.143C257.932 146.19 258.008 146.238 258.073 146.283C258.139 146.331 258.215 146.376 258.302 146.424L258.922 146.67L259.905 147.02L262.261 147.862L263.929 148.387L265.401 148.948C266.798 149.415 268.281 150.21 269.852 151.331C271.304 152.393 272.468 153.797 273.238 155.416C274.012 157.042 274.4 158.718 274.4 160.448C274.4 164.093 272.884 167.225 269.852 169.842C267.037 172.273 263.275 173.489 258.564 173.489C257.953 173.489 256.97 173.442 255.619 173.348ZM274.416 140.367C274.416 138.457 275.061 136.84 276.35 135.518C277.638 134.268 279.166 133.643 280.934 133.643H281.589V130.138C281.589 127.92 282.333 125.973 283.818 124.298C285.258 122.74 286.993 121.96 289.025 121.96C291.078 121.96 292.845 122.763 294.331 124.368C295.816 126.115 296.558 128.097 296.558 130.316V133.643H297.41C299.112 133.643 300.587 134.293 301.83 135.59C303.074 136.901 303.755 138.639 303.731 140.439C303.727 141.544 303.451 142.631 302.929 143.606C302.654 144.116 302.344 144.58 301.995 145.006C300.706 146.398 299.179 147.129 297.41 147.201H296.492V165.608C296.492 167.921 295.748 169.879 294.266 171.484C292.867 173.066 291.12 173.856 289.023 173.856C286.972 173.856 285.215 173.066 283.752 171.484C282.266 169.809 281.524 167.826 281.524 165.536V147.058H281C279.122 147.058 277.507 146.327 276.154 144.863C274.995 143.614 274.418 142.114 274.418 140.367H274.416ZM316.003 133.372C317.417 133.07 318.517 132.919 319.298 132.919C322.606 132.919 326.044 132.672 328.242 134.97C328.242 134.97 340.145 127.959 341.004 140.995V165.156C341.004 167.501 340.237 169.352 338.914 170.9C333.818 176.874 327.557 169.44 327.557 169.44V169.788C325.532 172.062 322.803 173.197 319.365 173.197C318.232 173.197 316.96 173.06 315.547 172.781C313.522 172.362 311.552 171.452 309.638 170.048C307.725 168.643 306.06 166.805 304.645 164.529C303.686 162.809 302.962 160.971 302.491 159.063C302.013 157.138 301.774 154.932 301.774 152.449C301.924 149.247 302.649 146.287 303.943 143.573C305.236 140.856 306.94 138.611 309.052 136.834C311.161 135.059 313.48 133.905 316.003 133.372ZM350.198 190.815C348.159 190.815 346.425 190.01 344.994 188.401C343.563 186.792 342.847 184.878 342.847 182.664V140.893C342.847 138.654 343.742 136.917 345.044 135.242C348.715 130.516 355.782 134.697 355.782 134.697C355.782 134.697 358.297 132.952 364.964 132.952C366.7 132.952 368.374 133.231 369.989 133.79C371.604 134.351 373.149 135.214 374.624 136.379C376.381 137.71 377.871 139.481 379.096 141.698C380.322 143.912 381.162 146.433 381.617 149.255C381.856 150.841 381.975 152.157 381.975 153.206C381.975 154.723 381.812 156.205 381.488 157.65C380.814 161.195 379.514 164.216 377.584 166.71C375.653 169.206 373.246 171.014 370.363 172.134C368.533 172.819 366.594 173.175 364.638 173.183C362.674 173.193 360.727 172.813 358.914 172.064L358.166 171.782L357.516 171.47V182.734C357.516 184.973 356.778 186.885 355.304 188.471C353.852 190.033 352.15 190.815 350.198 190.815ZM390.294 190.815C388.257 190.815 386.523 190.01 385.094 188.401C383.663 186.792 382.949 184.878 382.949 182.664V140.893C382.949 138.654 383.74 136.829 385.141 135.242C389.44 130.377 396.624 134.697 396.624 134.697C399.072 132.553 401.647 132.952 405.048 132.952C406.782 132.952 408.456 133.231 410.069 133.79C411.683 134.351 413.227 135.214 414.701 136.379C416.454 137.71 417.946 139.481 419.169 141.698C420.392 143.912 421.233 146.433 421.688 149.255C421.927 150.841 422.046 152.157 422.046 153.206C422.046 154.723 421.883 156.205 421.559 157.65C420.886 161.195 419.586 164.216 417.659 166.71C415.728 169.206 413.325 171.014 410.443 172.134C408.614 172.819 406.677 173.175 404.722 173.183C402.759 173.193 400.815 172.813 399.003 172.064L398.255 171.782L397.605 171.47V182.734C397.605 184.973 396.868 186.885 395.395 188.471C393.942 190.033 392.242 190.815 390.294 190.815ZM396.64 152.658C396.64 155.95 399.254 158.618 402.48 158.618C405.703 158.618 408.319 155.95 408.319 152.66C408.319 149.368 405.705 146.702 402.48 146.702C399.256 146.702 396.64 149.368 396.64 152.66V152.658ZM356.788 152.658C356.788 155.95 359.415 158.618 362.656 158.618C365.898 158.618 368.522 155.95 368.522 152.66C368.522 149.368 365.896 146.702 362.656 146.702C359.415 146.702 356.788 149.368 356.788 152.66V152.658ZM316.606 152.825C316.606 156.115 319.232 158.783 322.472 158.783C325.713 158.783 328.34 156.115 328.34 152.825C328.34 149.533 325.713 146.865 322.472 146.865C319.231 146.865 316.606 149.533 316.606 152.823V152.825Z" fill="white"/>
<path d="M200.433 160.105C200.433 166.621 197.417 174.099 193.09 178.581C188.76 183.066 180.49 185.102 174.199 185.102C167.907 185.102 160.118 181.383 156.359 176.407C152.456 171.245 152.162 166.621 152.162 160.105C152.162 158.003 152.542 156.725 153.479 155.138C155.166 152.282 158.081 152.818 160.104 152.665C162.837 152.458 163.773 153.316 165.026 154.609C166.276 155.906 166.903 157.604 166.903 159.706C166.903 162.228 167.493 164.626 169.153 166.374C170.809 168.127 173.864 168.8 176.297 168.8C178.733 168.8 180.024 167.868 181.717 166.118C183.407 164.367 184.254 162.228 184.254 159.706V134.764C188.857 135.316 193.499 134.094 197.22 131.349C198.067 132.365 199.179 133.129 200.435 133.558L200.433 160.105Z" fill="white"/>
<path d="M203.741 131.092L200.551 129.598L196.619 127.756C192.965 130.367 188.33 131.938 183.279 131.938C171.502 131.938 161.956 123.447 161.956 112.972C161.956 102.496 171.502 94.0054 183.281 94.0054C195.057 94.0054 204.604 102.496 204.604 112.97C204.604 115.521 204.033 118.041 202.932 120.346L207.537 128.565C209.042 132.075 205.463 131.694 203.741 131.092ZM173.525 106.303C173.525 107.926 174.788 109.242 176.346 109.242C177.905 109.242 179.17 107.926 179.17 106.303C179.17 104.681 177.905 103.365 176.346 103.365C174.788 103.365 173.523 104.681 173.523 106.303H173.525ZM186.642 106.303C186.642 107.926 187.905 109.242 189.464 109.242C191.022 109.242 192.287 107.926 192.287 106.303C192.287 104.681 191.024 103.365 189.464 103.365C187.905 103.365 186.642 104.681 186.642 106.303Z" fill="white"/>
</svg>
