<svg width="180" height="172" viewBox="0 0 180 172" fill="none" xmlns="http://www.w3.org/2000/svg">
<g filter="url(#filter0_d)">
<circle cx="90.1114" cy="66.1114" r="66.1114" fill="#1BBFC6"/>
</g>
<path d="M107.262 79.0646C107.262 84.0525 104.964 89.7778 101.668 93.2089C98.3692 96.6427 92.0695 98.2009 87.2769 98.2009C82.4844 98.2009 76.5504 95.3537 73.6872 91.5445C70.7135 87.5926 70.4895 84.0525 70.4895 79.0646C70.4895 77.4554 70.7796 76.4772 71.4933 75.2621C72.7778 73.0756 74.9987 73.486 76.5396 73.369C78.6215 73.2102 79.3352 73.8668 80.2891 74.8571C81.2417 75.8501 81.7194 77.1499 81.7194 78.7592C81.7194 80.69 82.1687 82.5253 83.4329 83.8642C84.6945 85.2057 87.0219 85.721 88.8758 85.721C90.731 85.721 91.7146 85.0079 93.0045 83.6677C94.2917 82.3276 94.9367 80.69 94.9367 78.7592V59.6647C98.4436 60.0874 101.979 59.1515 104.815 57.0503C105.459 57.8279 106.307 58.4131 107.263 58.7416L107.262 79.0646Z" fill="white"/>
<path d="M109.782 56.8541L107.352 55.7104L104.357 54.3002C101.573 56.2984 98.0422 57.5013 94.1941 57.5013C85.2229 57.5013 77.9504 51.001 77.9504 42.9816C77.9504 34.9622 85.2229 28.4619 94.1955 28.4619C103.167 28.4619 110.439 34.9622 110.439 42.9803C110.439 44.9335 110.004 46.8623 109.165 48.6275L112.674 54.9192C113.82 57.6062 111.094 57.3142 109.782 56.8541ZM86.7638 37.8766C86.7638 39.1186 87.7258 40.1264 88.9131 40.1264C90.1005 40.1264 91.0639 39.1186 91.0639 37.8766C91.0639 36.6347 90.1005 35.6269 88.9131 35.6269C87.7258 35.6269 86.7624 36.6347 86.7624 37.8766H86.7638ZM96.7564 37.8766C96.7564 39.1186 97.7184 40.1264 98.9057 40.1264C100.093 40.1264 101.056 39.1186 101.056 37.8766C101.056 36.6347 100.094 35.6269 98.9057 35.6269C97.7184 35.6269 96.7564 36.6347 96.7564 37.8766Z" fill="white"/>
<defs>
<filter id="filter0_d" x="-9" y="-15" width="202.223" height="202.223" filterUnits="userSpaceOnUse" color-interpolation-filters="sRGB">
<feFlood flood-opacity="0" result="BackgroundImageFix"/>
<feColorMatrix in="SourceAlpha" type="matrix" values="0 0 0 0 0 0 0 0 0 0 0 0 0 0 0 0 0 0 127 0"/>
<feMorphology radius="5" operator="erode" in="SourceAlpha" result="effect1_dropShadow"/>
<feOffset dx="2" dy="20"/>
<feGaussianBlur stdDeviation="20"/>
<feColorMatrix type="matrix" values="0 0 0 0 0 0 0 0 0 0 0 0 0 0 0 0 0 0 0.2 0"/>
<feBlend mode="normal" in2="BackgroundImageFix" result="effect1_dropShadow"/>
<feBlend mode="normal" in="SourceGraphic" in2="effect1_dropShadow" result="shape"/>
</filter>
</defs>
</svg>
