<svg width="574" height="371" viewBox="0 0 574 371" fill="none" xmlns="http://www.w3.org/2000/svg">
<rect width="573.776" height="286" rx="30" fill="#1BBFC6"/>
<g filter="url(#filter0_dddddd)">
<path d="M222.199 173.595C221.195 173.595 220.027 173.512 218.697 173.348C213.55 172.717 209.739 170.912 207.263 167.932C204.786 164.952 203.548 160.704 203.548 155.189V141.199C203.548 139.705 203.887 138.35 204.563 137.133C205.208 135.951 206.149 134.955 207.296 134.24C208.426 133.532 209.738 133.161 211.074 133.172C213.125 133.172 214.875 133.961 216.326 135.537C217.776 137.116 218.502 139.051 218.502 141.341V155.119C218.502 156.474 218.796 157.479 219.384 158.133C219.886 158.787 220.573 159.219 221.446 159.43C223.06 159.43 224.206 158.998 224.882 158.133C225.449 157.525 225.732 156.521 225.732 155.119V141.339C225.732 139.868 226.069 138.506 226.747 137.256C227.385 136.047 228.326 135.02 229.478 134.275C230.601 133.546 231.916 133.162 233.258 133.172C234.654 133.172 235.918 133.528 237.054 134.24C238.187 134.954 239.087 135.919 239.753 137.133C240.417 138.35 240.75 139.705 240.75 141.2V155.189C240.75 158.88 240.215 161.996 239.147 164.531C238.078 167.067 236.42 169.065 234.174 170.526C231.926 171.986 229.069 172.928 225.601 173.348C224.271 173.512 223.136 173.595 222.199 173.595ZM255.802 173.348C251.767 173.022 248.582 172.122 246.248 170.649C243.368 168.733 241.93 166.664 241.93 164.445C241.93 163.766 242.027 163.17 242.224 162.655C242.596 161.393 243.292 160.395 244.317 159.659C245.345 158.92 246.584 158.553 248.047 158.553C248.942 158.553 250.031 158.776 251.319 159.221L252.661 159.641L253.609 159.993C255.093 160.646 256.434 161.056 257.635 161.218H258.845C259.434 161.218 259.826 161.007 260.022 160.587C260.022 159.862 259.783 159.339 259.303 159.01C259.264 158.975 259.22 158.945 259.172 158.922C259.111 158.89 259.05 158.854 258.992 158.817C258.944 158.786 258.895 158.756 258.845 158.729L258.225 158.483L256.882 158.133L255.146 157.571L253.871 157.221C251.864 156.637 250.201 156.001 248.882 155.31C247.562 154.621 246.526 153.844 245.773 152.98C245.021 152.115 244.394 151.064 243.892 149.825C243.399 148.537 243.144 147.171 243.14 145.793C243.14 143.548 243.806 141.439 245.136 139.466C246.466 137.49 248.37 135.919 250.846 134.75C253.32 133.581 256.206 132.996 259.5 132.996C262.05 132.996 264.33 133.289 266.337 133.873C269.5 134.808 271.648 136.082 272.784 137.694C273.351 138.513 273.634 139.517 273.634 140.71C273.634 141.854 273.296 142.912 272.619 143.882C271.942 144.853 271.027 145.489 269.872 145.793C269.349 145.933 268.809 146.004 268.267 146.004C267.417 146.004 266.305 145.816 264.93 145.441L262.902 144.916L261.921 144.635L260.841 144.426C260.596 144.35 260.343 144.303 260.088 144.285C258.8 144.285 258.069 144.31 257.895 144.355L257.766 144.496L257.569 144.707C257.415 144.87 257.339 145.021 257.339 145.162C257.339 145.466 257.569 145.793 258.026 146.143C258.115 146.19 258.191 146.238 258.257 146.283C258.322 146.331 258.398 146.376 258.485 146.424L259.105 146.67L260.088 147.02L262.444 147.862L264.112 148.387L265.584 148.948C266.981 149.415 268.464 150.21 270.035 151.331C271.487 152.393 272.651 153.797 273.421 155.416C274.195 157.042 274.583 158.718 274.583 160.448C274.583 164.093 273.067 167.225 270.035 169.842C267.221 172.273 263.459 173.489 258.747 173.489C258.136 173.489 257.153 173.442 255.802 173.348ZM274.599 140.367C274.599 138.457 275.244 136.84 276.533 135.518C277.821 134.268 279.35 133.643 281.117 133.643H281.773V130.138C281.773 127.92 282.516 125.973 284.001 124.298C285.441 122.74 287.176 121.96 289.208 121.96C291.261 121.96 293.028 122.763 294.514 124.368C295.999 126.115 296.741 128.097 296.741 130.316V133.643H297.593C299.295 133.643 300.77 134.293 302.014 135.59C303.257 136.901 303.939 138.639 303.914 140.439C303.91 141.544 303.634 142.631 303.112 143.606C302.837 144.116 302.527 144.58 302.178 145.006C300.889 146.398 299.362 147.129 297.593 147.201H296.675V165.608C296.675 167.921 295.931 169.879 294.449 171.484C293.05 173.066 291.303 173.856 289.206 173.856C287.155 173.856 285.398 173.066 283.935 171.484C282.449 169.809 281.707 167.826 281.707 165.536V147.058H281.183C279.305 147.058 277.69 146.327 276.337 144.863C275.178 143.614 274.601 142.114 274.601 140.367H274.599ZM316.187 133.372C317.6 133.07 318.7 132.919 319.481 132.919C322.79 132.919 326.227 132.672 328.425 134.97C328.425 134.97 340.328 127.959 341.187 140.995V165.156C341.187 167.501 340.42 169.352 339.097 170.9C334.001 176.874 327.74 169.44 327.74 169.44V169.788C325.716 172.062 322.986 173.197 319.548 173.197C318.415 173.197 317.143 173.06 315.73 172.781C313.705 172.362 311.736 171.452 309.821 170.048C307.908 168.643 306.243 166.805 304.828 164.529C303.87 162.809 303.145 160.971 302.674 159.063C302.196 157.138 301.957 154.932 301.957 152.449C302.107 149.247 302.832 146.287 304.127 143.573C305.42 140.856 307.123 138.611 309.235 136.834C311.344 135.059 313.663 133.905 316.187 133.372ZM350.381 190.815C348.342 190.815 346.608 190.01 345.177 188.401C343.746 186.792 343.031 184.878 343.031 182.664V140.893C343.031 138.654 343.925 136.917 345.227 135.242C348.898 130.516 355.966 134.697 355.966 134.697C355.966 134.697 358.481 132.952 365.147 132.952C366.883 132.952 368.557 133.231 370.172 133.79C371.787 134.351 373.332 135.214 374.807 136.379C376.564 137.71 378.054 139.481 379.28 141.698C380.505 143.912 381.345 146.433 381.8 149.255C382.039 150.841 382.158 152.157 382.158 153.206C382.158 154.723 381.995 156.205 381.671 157.65C380.998 161.195 379.698 164.216 377.767 166.71C375.836 169.206 373.429 171.014 370.546 172.134C368.716 172.819 366.777 173.175 364.821 173.183C362.857 173.193 360.911 172.813 359.097 172.064L358.35 171.782L357.7 171.47V182.734C357.7 184.973 356.961 186.885 355.487 188.471C354.035 190.033 352.333 190.815 350.381 190.815ZM390.477 190.815C388.44 190.815 386.706 190.01 385.277 188.401C383.846 186.792 383.132 184.878 383.132 182.664V140.893C383.132 138.654 383.924 136.829 385.325 135.242C389.623 130.377 396.807 134.697 396.807 134.697C399.255 132.553 401.83 132.952 405.231 132.952C406.965 132.952 408.639 133.231 410.252 133.79C411.866 134.351 413.41 135.214 414.884 136.379C416.637 137.71 418.129 139.481 419.353 141.698C420.575 143.912 421.416 146.433 421.871 149.255C422.11 150.841 422.229 152.157 422.229 153.206C422.229 154.723 422.066 156.205 421.742 157.65C421.069 161.195 419.769 164.216 417.842 166.71C415.911 169.206 413.508 171.014 410.626 172.134C408.797 172.819 406.86 173.175 404.905 173.183C402.942 173.193 400.998 172.813 399.186 172.064L398.438 171.782L397.788 171.47V182.734C397.788 184.973 397.052 186.885 395.578 188.471C394.126 190.033 392.425 190.815 390.477 190.815ZM396.823 152.658C396.823 155.95 399.437 158.618 402.663 158.618C405.886 158.618 408.502 155.95 408.502 152.66C408.502 149.368 405.888 146.702 402.663 146.702C399.439 146.702 396.823 149.368 396.823 152.66V152.658ZM356.972 152.658C356.972 155.95 359.598 158.618 362.839 158.618C366.081 158.618 368.706 155.95 368.706 152.66C368.706 149.368 366.079 146.702 362.839 146.702C359.598 146.702 356.972 149.368 356.972 152.66V152.658ZM316.789 152.825C316.789 156.115 319.415 158.783 322.655 158.783C325.896 158.783 328.523 156.115 328.523 152.825C328.523 149.533 325.896 146.865 322.655 146.865C319.414 146.865 316.789 149.533 316.789 152.823V152.825Z" fill="white"/>
<path d="M200.616 160.105C200.616 166.621 197.6 174.099 193.273 178.581C188.943 183.066 180.673 185.102 174.382 185.102C168.091 185.102 160.301 181.383 156.542 176.407C152.639 171.245 152.345 166.621 152.345 160.105C152.345 158.003 152.726 156.725 153.662 155.138C155.349 152.282 158.264 152.818 160.287 152.665C163.02 152.458 163.957 153.316 165.209 154.609C166.459 155.906 167.086 157.604 167.086 159.706C167.086 162.228 167.676 164.626 169.336 166.374C170.992 168.127 174.047 168.8 176.481 168.8C178.916 168.8 180.207 167.868 181.9 166.118C183.59 164.367 184.437 162.228 184.437 159.706V134.764C189.04 135.316 193.682 134.094 197.404 131.349C198.25 132.365 199.362 133.129 200.618 133.558L200.616 160.105Z" fill="white"/>
<path d="M203.924 131.092L200.735 129.598L196.802 127.756C193.149 130.367 188.513 131.938 183.462 131.938C171.685 131.938 162.139 123.447 162.139 112.972C162.139 102.496 171.685 94.0054 183.464 94.0054C195.24 94.0054 204.787 102.496 204.787 112.97C204.787 115.521 204.216 118.041 203.115 120.346L207.72 128.565C209.226 132.075 205.646 131.694 203.924 131.092ZM173.708 106.303C173.708 107.926 174.971 109.242 176.53 109.242C178.088 109.242 179.353 107.926 179.353 106.303C179.353 104.681 178.088 103.365 176.53 103.365C174.971 103.365 173.706 104.681 173.706 106.303H173.708ZM186.825 106.303C186.825 107.926 188.088 109.242 189.647 109.242C191.206 109.242 192.47 107.926 192.47 106.303C192.47 104.681 191.207 103.365 189.647 103.365C188.088 103.365 186.825 104.681 186.825 106.303Z" fill="white"/>
</g>
<defs>
<filter id="filter0_dddddd" x="72.3447" y="94.0054" width="429.884" height="276.81" filterUnits="userSpaceOnUse" color-interpolation-filters="sRGB">
<feFlood flood-opacity="0" result="BackgroundImageFix"/>
<feColorMatrix in="SourceAlpha" type="matrix" values="0 0 0 0 0 0 0 0 0 0 0 0 0 0 0 0 0 0 127 0"/>
<feOffset dy="2.76726"/>
<feGaussianBlur stdDeviation="1.1069"/>
<feColorMatrix type="matrix" values="0 0 0 0 0 0 0 0 0 0 0 0 0 0 0 0 0 0 0.0196802 0"/>
<feBlend mode="normal" in2="BackgroundImageFix" result="effect1_dropShadow"/>
<feColorMatrix in="SourceAlpha" type="matrix" values="0 0 0 0 0 0 0 0 0 0 0 0 0 0 0 0 0 0 127 0"/>
<feOffset dy="6.6501"/>
<feGaussianBlur stdDeviation="2.66004"/>
<feColorMatrix type="matrix" values="0 0 0 0 0 0 0 0 0 0 0 0 0 0 0 0 0 0 0.0282725 0"/>
<feBlend mode="normal" in2="effect1_dropShadow" result="effect2_dropShadow"/>
<feColorMatrix in="SourceAlpha" type="matrix" values="0 0 0 0 0 0 0 0 0 0 0 0 0 0 0 0 0 0 127 0"/>
<feOffset dy="12.5216"/>
<feGaussianBlur stdDeviation="5.00862"/>
<feColorMatrix type="matrix" values="0 0 0 0 0 0 0 0 0 0 0 0 0 0 0 0 0 0 0.035 0"/>
<feBlend mode="normal" in2="effect2_dropShadow" result="effect3_dropShadow"/>
<feColorMatrix in="SourceAlpha" type="matrix" values="0 0 0 0 0 0 0 0 0 0 0 0 0 0 0 0 0 0 127 0"/>
<feOffset dy="22.3363"/>
<feGaussianBlur stdDeviation="8.93452"/>
<feColorMatrix type="matrix" values="0 0 0 0 0 0 0 0 0 0 0 0 0 0 0 0 0 0 0.0417275 0"/>
<feBlend mode="normal" in2="effect3_dropShadow" result="effect4_dropShadow"/>
<feColorMatrix in="SourceAlpha" type="matrix" values="0 0 0 0 0 0 0 0 0 0 0 0 0 0 0 0 0 0 127 0"/>
<feOffset dy="41.7776"/>
<feGaussianBlur stdDeviation="16.711"/>
<feColorMatrix type="matrix" values="0 0 0 0 0 0 0 0 0 0 0 0 0 0 0 0 0 0 0.0503198 0"/>
<feBlend mode="normal" in2="effect4_dropShadow" result="effect5_dropShadow"/>
<feColorMatrix in="SourceAlpha" type="matrix" values="0 0 0 0 0 0 0 0 0 0 0 0 0 0 0 0 0 0 127 0"/>
<feOffset dy="100"/>
<feGaussianBlur stdDeviation="40"/>
<feColorMatrix type="matrix" values="0 0 0 0 0 0 0 0 0 0 0 0 0 0 0 0 0 0 0.07 0"/>
<feBlend mode="normal" in2="effect5_dropShadow" result="effect6_dropShadow"/>
<feBlend mode="normal" in="SourceGraphic" in2="effect6_dropShadow" result="shape"/>
</filter>
</defs>
</svg>
