<?xml version="1.0" encoding="utf-8"?>
<!-- Generator: Adobe Illustrator 18.0.0, SVG Export Plug-In . SVG Version: 6.00 Build 0)  -->
<!DOCTYPE svg PUBLIC "-//W3C//DTD SVG 1.1//EN" "http://www.w3.org/Graphics/SVG/1.1/DTD/svg11.dtd">
<svg version="1.1" id="Layer_1" xmlns="http://www.w3.org/2000/svg" xmlns:xlink="http://www.w3.org/1999/xlink" x="0px" y="0px"
	 viewBox="0 0 64 64" enable-background="new 0 0 64 64" xml:space="preserve">
<g>
	<g>
		<path d="M14,64c-2.2,0-4-1.8-4-4V4c0-2.2,1.8-4,4-4c0.9,0,1.7,0.3,2.4,0.8l34.7,28c1,0.7,1.5,1.9,1.5,3.2s-0.6,2.4-1.6,3.2
			l-34.6,28C15.7,63.7,14.9,64,14,64z M13.9,4L14,60l34.6-28L13.9,4z"/>
	</g>
</g>
</svg>
